{
  "/api": {
    "target": "http://localhost:9000",
    "pathRewrite": {"/api/": ""},
    "secure": false,
    "changeOrigin": false
  },
  "/wms": {
    "target": "https://185.26.49.172",
    "pathRewrite": {"/wms/": "/wms"},
    "secure": false,
    "changeOrigin": true
  },
  "/tms": {
    "target": "https://185.26.49.172",
    "secure": false,
    "changeOrigin": true
  }
}
